# Export of Cubik Model: Cubik Model
# Designed by Queekusme with Cubik Studio - https://cubik.studio
# from Cubik OBJ Exporter v1.0
mtllib computer_outline.mtl
v 4 12 6
v 6 12 6
v 6 12 7
v 4 12 7
v 6 13 6
v 4 13 6
v 4 13 7
v 6 13 7
v 6 13 7
v 4 13 7
v 4 12 7
v 6 12 7
v 4 13 6
v 6 13 6
v 6 12 6
v 4 12 6
v 6 13 6
v 6 13 7
v 6 12 7
v 6 12 6
v 4 13 7
v 4 13 6
v 4 12 6
v 4 12 7
vn 0 -1 0
vn 0 1 0
vn 0 0 1
vn 0 0 -1
vn 1 0 0
vn -1 0 0
vt 0.5761719 0.00390625
vt 0.5722656 0.00390625
vt 0.5722656 0.001953125
vt 0.5761719 0.001953125
vt 0.5722656 0.02734375
vt 0.5761719 0.02734375
vt 0.5761719 0.02929688
vt 0.5722656 0.02929688
vt 0.5957031 0.02539063
vt 0.5917969 0.02539063
vt 0.5917969 0.0234375
vt 0.5957031 0.0234375
vt 0.5761719 0.02539063
vt 0.5722656 0.02539063
vt 0.5722656 0.0234375
vt 0.5761719 0.0234375
vt 0.5703125 0.02539063
vt 0.5703125 0.0234375
vt 0.5976563 0.02539063
vt 0.5976563 0.0234375
v 5 12 5
v 6 12 5
v 6 12 6
v 5 12 6
v 6 13 5
v 5 13 5
v 5 13 6
v 6 13 6
v 6 13 6
v 5 13 6
v 5 12 6
v 6 12 6
v 5 13 5
v 6 13 5
v 6 12 5
v 5 12 5
v 6 13 5
v 6 13 6
v 6 12 6
v 6 12 5
v 5 13 6
v 5 13 5
v 5 12 5
v 5 12 6
vt 0.5742188 0.005859375
vt 0.5722656 0.005859375
vt 0.5742188 0.00390625
vt 0.5742188 0.02539063
vt 0.5742188 0.02734375
vt 0.59375 0.02539063
vt 0.59375 0.0234375
vt 0.5742188 0.0234375
v 5 11 6
v 6 11 6
v 6 11 7
v 5 11 7
v 6 12 6
v 5 12 6
v 5 12 7
v 6 12 7
v 6 12 7
v 5 12 7
v 5 11 7
v 6 11 7
v 5 12 6
v 6 12 6
v 6 11 6
v 5 11 6
v 6 12 6
v 6 12 7
v 6 11 7
v 6 11 6
v 5 12 7
v 5 12 6
v 5 11 6
v 5 11 7
vt 0.5742188 0.001953125
vt 0.5742188 0.02929688
vt 0.59375 0.02148438
vt 0.5957031 0.02148438
vt 0.5722656 0.02148438
vt 0.5742188 0.02148438
vt 0.5703125 0.02148438
vt 0.5976563 0.02148438
v -6 12 6
v -4 12 6
v -4 12 7
v -6 12 7
v -4 13 6
v -6 13 6
v -6 13 7
v -4 13 7
v -4 13 7
v -6 13 7
v -6 12 7
v -4 12 7
v -6 13 6
v -4 13 6
v -4 12 6
v -6 12 6
v -4 13 6
v -4 13 7
v -4 12 7
v -4 12 6
v -6 13 7
v -6 13 6
v -6 12 6
v -6 12 7
vt 0.5957031 0.00390625
vt 0.5917969 0.00390625
vt 0.5917969 0.001953125
vt 0.5957031 0.001953125
vt 0.5917969 0.02734375
vt 0.5957031 0.02734375
vt 0.5957031 0.02929688
vt 0.5917969 0.02929688
v -6 12 5
v -5 12 5
v -5 12 6
v -6 12 6
v -5 13 5
v -6 13 5
v -6 13 6
v -5 13 6
v -5 13 6
v -6 13 6
v -6 12 6
v -5 12 6
v -6 13 5
v -5 13 5
v -5 12 5
v -6 12 5
v -5 13 5
v -5 13 6
v -5 12 6
v -5 12 5
v -6 13 6
v -6 13 5
v -6 12 5
v -6 12 6
vt 0.5957031 0.005859375
vt 0.59375 0.005859375
vt 0.59375 0.00390625
vt 0.59375 0.02734375
v -6 11 6
v -5 11 6
v -5 11 7
v -6 11 7
v -5 12 6
v -6 12 6
v -6 12 7
v -5 12 7
v -5 12 7
v -6 12 7
v -6 11 7
v -5 11 7
v -6 12 6
v -5 12 6
v -5 11 6
v -6 11 6
v -5 12 6
v -5 12 7
v -5 11 7
v -5 11 6
v -6 12 7
v -6 12 6
v -6 11 6
v -6 11 7
vt 0.59375 0.001953125
vt 0.59375 0.02929688
v 5 12 -5
v 6 12 -5
v 6 12 -4
v 5 12 -4
v 6 13 -5
v 5 13 -5
v 5 13 -4
v 6 13 -4
v 6 13 -4
v 5 13 -4
v 5 12 -4
v 6 12 -4
v 5 13 -5
v 6 13 -5
v 6 12 -5
v 5 12 -5
v 6 13 -5
v 6 13 -4
v 6 12 -4
v 6 12 -5
v 5 13 -4
v 5 13 -5
v 5 12 -5
v 5 12 -4
vt 0.5742188 0.0078125
vt 0.5722656 0.0078125
v 4 12 -6
v 6 12 -6
v 6 12 -5
v 4 12 -5
v 6 13 -6
v 4 13 -6
v 4 13 -5
v 6 13 -5
v 6 13 -5
v 4 13 -5
v 4 12 -5
v 6 12 -5
v 4 13 -6
v 6 13 -6
v 6 12 -6
v 4 12 -6
v 6 13 -6
v 6 13 -5
v 6 12 -5
v 6 12 -6
v 4 13 -5
v 4 13 -6
v 4 12 -6
v 4 12 -5
vt 0.5761719 0.005859375
v 5 11 -6
v 6 11 -6
v 6 11 -5
v 5 11 -5
v 6 12 -6
v 5 12 -6
v 5 12 -5
v 6 12 -5
v 6 12 -5
v 5 12 -5
v 5 11 -5
v 6 11 -5
v 5 12 -6
v 6 12 -6
v 6 11 -6
v 5 11 -6
v 6 12 -6
v 6 12 -5
v 6 11 -5
v 6 11 -6
v 5 12 -5
v 5 12 -6
v 5 11 -6
v 5 11 -5
v -6 12 -5
v -5 12 -5
v -5 12 -4
v -6 12 -4
v -5 13 -5
v -6 13 -5
v -6 13 -4
v -5 13 -4
v -5 13 -4
v -6 13 -4
v -6 12 -4
v -5 12 -4
v -6 13 -5
v -5 13 -5
v -5 12 -5
v -6 12 -5
v -5 13 -5
v -5 13 -4
v -5 12 -4
v -5 12 -5
v -6 13 -4
v -6 13 -5
v -6 12 -5
v -6 12 -4
vt 0.5957031 0.0078125
vt 0.59375 0.0078125
v -6 12 -6
v -4 12 -6
v -4 12 -5
v -6 12 -5
v -4 13 -6
v -6 13 -6
v -6 13 -5
v -4 13 -5
v -4 13 -5
v -6 13 -5
v -6 12 -5
v -4 12 -5
v -6 13 -6
v -4 13 -6
v -4 12 -6
v -6 12 -6
v -4 13 -6
v -4 13 -5
v -4 12 -5
v -4 12 -6
v -6 13 -5
v -6 13 -6
v -6 12 -6
v -6 12 -5
vt 0.5917969 0.005859375
v -6 11 -6
v -5 11 -6
v -5 11 -5
v -6 11 -5
v -5 12 -6
v -6 12 -6
v -6 12 -5
v -5 12 -5
v -5 12 -5
v -6 12 -5
v -6 11 -5
v -5 11 -5
v -6 12 -6
v -5 12 -6
v -5 11 -6
v -6 11 -6
v -5 12 -6
v -5 12 -5
v -5 11 -5
v -5 11 -6
v -6 12 -5
v -6 12 -6
v -6 11 -6
v -6 11 -5
v 4 1 6
v 6 1 6
v 6 1 7
v 4 1 7
v 6 2 6
v 4 2 6
v 4 2 7
v 6 2 7
v 6 2 7
v 4 2 7
v 4 1 7
v 6 1 7
v 4 2 6
v 6 2 6
v 6 1 6
v 4 1 6
v 6 2 6
v 6 2 7
v 6 1 7
v 6 1 6
v 4 2 7
v 4 2 6
v 4 1 6
v 4 1 7
vt 0.5703125 0.00390625
vt 0.5703125 0.001953125
vt 0.5976563 0.00390625
vt 0.5976563 0.001953125
v -6 1 -6
v -4 1 -6
v -4 1 -5
v -6 1 -5
v -4 2 -6
v -6 2 -6
v -6 2 -5
v -4 2 -5
v -4 2 -5
v -6 2 -5
v -6 1 -5
v -4 1 -5
v -6 2 -6
v -4 2 -6
v -4 1 -6
v -6 1 -6
v -4 2 -6
v -4 2 -5
v -4 1 -5
v -4 1 -6
v -6 2 -5
v -6 2 -6
v -6 1 -6
v -6 1 -5
v 5 2 6
v 6 2 6
v 6 2 7
v 5 2 7
v 6 3 6
v 5 3 6
v 5 3 7
v 6 3 7
v 6 3 7
v 5 3 7
v 5 2 7
v 6 2 7
v 5 3 6
v 6 3 6
v 6 2 6
v 5 2 6
v 6 3 6
v 6 3 7
v 6 2 7
v 6 2 6
v 5 3 7
v 5 3 6
v 5 2 6
v 5 2 7
vt 0.5703125 0.005859375
vt 0.5976563 0.005859375
v -6 1 6
v -4 1 6
v -4 1 7
v -6 1 7
v -4 2 6
v -6 2 6
v -6 2 7
v -4 2 7
v -4 2 7
v -6 2 7
v -6 1 7
v -4 1 7
v -6 2 6
v -4 2 6
v -4 1 6
v -6 1 6
v -4 2 6
v -4 2 7
v -4 1 7
v -4 1 6
v -6 2 7
v -6 2 6
v -6 1 6
v -6 1 7
v -6 1 5
v -5 1 5
v -5 1 6
v -6 1 6
v -5 2 5
v -6 2 5
v -6 2 6
v -5 2 6
v -5 2 6
v -6 2 6
v -6 1 6
v -5 1 6
v -6 2 5
v -5 2 5
v -5 1 5
v -6 1 5
v -5 2 5
v -5 2 6
v -5 1 6
v -5 1 5
v -6 2 6
v -6 2 5
v -6 1 5
v -6 1 6
v -6 2 6
v -5 2 6
v -5 2 7
v -6 2 7
v -5 3 6
v -6 3 6
v -6 3 7
v -5 3 7
v -5 3 7
v -6 3 7
v -6 2 7
v -5 2 7
v -6 3 6
v -5 3 6
v -5 2 6
v -6 2 6
v -5 3 6
v -5 3 7
v -5 2 7
v -5 2 6
v -6 3 7
v -6 3 6
v -6 2 6
v -6 2 7
v 5 1 -6
v 6 1 -6
v 6 1 -4
v 5 1 -4
v 6 2 -6
v 5 2 -6
v 5 2 -4
v 6 2 -4
v 6 2 -4
v 5 2 -4
v 5 1 -4
v 6 1 -4
v 5 2 -6
v 6 2 -6
v 6 1 -6
v 5 1 -6
v 6 2 -6
v 6 2 -4
v 6 1 -4
v 6 1 -6
v 5 2 -4
v 5 2 -6
v 5 1 -6
v 5 1 -4
v 5 2 -6
v 6 2 -6
v 6 2 -5
v 5 2 -5
v 6 3 -6
v 5 3 -6
v 5 3 -5
v 6 3 -5
v 6 3 -5
v 5 3 -5
v 5 2 -5
v 6 2 -5
v 5 3 -6
v 6 3 -6
v 6 2 -6
v 5 2 -6
v 6 3 -6
v 6 3 -5
v 6 2 -5
v 6 2 -6
v 5 3 -5
v 5 3 -6
v 5 2 -6
v 5 2 -5
v -6 1 -5
v -5 1 -5
v -5 1 -4
v -6 1 -4
v -5 2 -5
v -6 2 -5
v -6 2 -4
v -5 2 -4
v -5 2 -4
v -6 2 -4
v -6 1 -4
v -5 1 -4
v -6 2 -5
v -5 2 -5
v -5 1 -5
v -6 1 -5
v -5 2 -5
v -5 2 -4
v -5 1 -4
v -5 1 -5
v -6 2 -4
v -6 2 -5
v -6 1 -5
v -6 1 -4
v -6 2 -6
v -5 2 -6
v -5 2 -5
v -6 2 -5
v -5 3 -6
v -6 3 -6
v -6 3 -5
v -5 3 -5
v -5 3 -5
v -6 3 -5
v -6 2 -5
v -5 2 -5
v -6 3 -6
v -5 3 -6
v -5 2 -6
v -6 2 -6
v -5 3 -6
v -5 3 -5
v -5 2 -5
v -5 2 -6
v -6 3 -5
v -6 3 -6
v -6 2 -6
v -6 2 -5
usemtl Element
f 1/1/1 2/2/1 4/4/1
f 2/2/1 3/3/1 4/4/1
f 5/5/2 6/6/2 8/8/2
f 6/6/2 7/7/2 8/8/2
f 9/9/3 10/10/3 12/12/3
f 10/10/3 11/11/3 12/12/3
f 13/13/4 14/14/4 16/16/4
f 14/14/4 15/15/4 16/16/4
f 17/14/5 18/17/5 20/15/5
f 18/17/5 19/18/5 20/15/5
f 21/19/6 22/9/6 24/20/6
f 22/9/6 23/12/6 24/20/6
usemtl Element
f 25/21/1 26/22/1 28/23/1
f 26/22/1 27/2/1 28/23/1
f 29/14/2 30/24/2 32/5/2
f 30/24/2 31/25/2 32/5/2
f 33/9/3 34/26/3 36/12/3
f 34/26/3 35/27/3 36/12/3
f 37/24/4 38/14/4 40/28/4
f 38/14/4 39/15/4 40/28/4
f 41/24/5 42/14/5 44/28/5
f 42/14/5 43/15/5 44/28/5
f 45/9/6 46/26/6 48/12/6
f 46/26/6 47/27/6 48/12/6
usemtl Element
f 49/23/1 50/2/1 52/29/1
f 50/2/1 51/3/1 52/29/1
f 53/5/2 54/25/2 56/8/2
f 54/25/2 55/30/2 56/8/2
f 57/12/3 58/27/3 60/32/3
f 58/27/3 59/31/3 60/32/3
f 61/28/4 62/15/4 64/34/4
f 62/15/4 63/33/4 64/34/4
f 65/15/5 66/18/5 68/33/5
f 66/18/5 67/35/5 68/33/5
f 69/20/6 70/12/6 72/36/6
f 70/12/6 71/32/6 72/36/6
usemtl Element
f 73/37/1 74/38/1 76/40/1
f 74/38/1 75/39/1 76/40/1
f 77/41/2 78/42/2 80/44/2
f 78/42/2 79/43/2 80/44/2
f 81/13/3 82/14/3 84/16/3
f 82/14/3 83/15/3 84/16/3
f 85/9/4 86/10/4 88/12/4
f 86/10/4 87/11/4 88/12/4
f 89/14/5 90/17/5 92/15/5
f 90/17/5 91/18/5 92/15/5
f 93/19/6 94/9/6 96/20/6
f 94/9/6 95/12/6 96/20/6
usemtl Element
f 97/45/1 98/46/1 100/37/1
f 98/46/1 99/47/1 100/37/1
f 101/26/2 102/9/2 104/48/2
f 102/9/2 103/42/2 104/48/2
f 105/24/3 106/14/3 108/28/3
f 106/14/3 107/15/3 108/28/3
f 109/9/4 110/26/4 112/12/4
f 110/26/4 111/27/4 112/12/4
f 113/24/5 114/14/5 116/28/5
f 114/14/5 115/15/5 116/28/5
f 117/9/6 118/26/6 120/12/6
f 118/26/6 119/27/6 120/12/6
usemtl Element
f 121/37/1 122/47/1 124/40/1
f 122/47/1 123/49/1 124/40/1
f 125/48/2 126/42/2 128/50/2
f 126/42/2 127/43/2 128/50/2
f 129/28/3 130/15/3 132/34/3
f 130/15/3 131/33/3 132/34/3
f 133/12/4 134/27/4 136/32/4
f 134/27/4 135/31/4 136/32/4
f 137/15/5 138/18/5 140/33/5
f 138/18/5 139/35/5 140/33/5
f 141/20/6 142/12/6 144/36/6
f 142/12/6 143/32/6 144/36/6
usemtl Element
f 145/24/1 146/14/1 148/28/1
f 146/14/1 147/15/1 148/28/1
f 149/22/2 150/21/2 152/52/2
f 150/21/2 151/51/2 152/52/2
f 153/9/3 154/26/3 156/12/3
f 154/26/3 155/27/3 156/12/3
f 157/24/4 158/14/4 160/28/4
f 158/14/4 159/15/4 160/28/4
f 161/26/5 162/10/5 164/27/5
f 162/10/5 163/11/5 164/27/5
f 165/13/6 166/24/6 168/16/6
f 166/24/6 167/28/6 168/16/6
usemtl Element
f 169/6/1 170/5/1 172/13/1
f 170/5/1 171/14/1 172/13/1
f 173/2/2 174/1/2 176/22/2
f 174/1/2 175/53/2 176/22/2
f 177/9/3 178/10/3 180/12/3
f 178/10/3 179/11/3 180/12/3
f 181/13/4 182/14/4 184/16/4
f 182/14/4 183/15/4 184/16/4
f 185/9/5 186/26/5 188/12/5
f 186/26/5 187/27/5 188/12/5
f 189/24/6 190/14/6 192/28/6
f 190/14/6 191/15/6 192/28/6
usemtl Element
f 193/25/1 194/5/1 196/24/1
f 194/5/1 195/14/1 196/24/1
f 197/2/2 198/23/2 200/22/2
f 198/23/2 199/21/2 200/22/2
f 201/12/3 202/27/3 204/32/3
f 202/27/3 203/31/3 204/32/3
f 205/28/4 206/15/4 208/34/4
f 206/15/4 207/33/4 208/34/4
f 209/12/5 210/27/5 212/32/5
f 210/27/5 211/31/5 212/32/5
f 213/28/6 214/15/6 216/34/6
f 214/15/6 215/33/6 216/34/6
usemtl Element
f 217/9/1 218/26/1 220/12/1
f 218/26/1 219/27/1 220/12/1
f 221/46/2 222/45/2 224/55/2
f 222/45/2 223/54/2 224/55/2
f 225/24/3 226/14/3 228/28/3
f 226/14/3 227/15/3 228/28/3
f 229/9/4 230/26/4 232/12/4
f 230/26/4 231/27/4 232/12/4
f 233/26/5 234/10/5 236/27/5
f 234/10/5 235/11/5 236/27/5
f 237/13/6 238/24/6 240/16/6
f 238/24/6 239/28/6 240/16/6
usemtl Element
f 241/42/1 242/41/1 244/9/1
f 242/41/1 243/10/1 244/9/1
f 245/38/2 246/37/2 248/56/2
f 246/37/2 247/45/2 248/56/2
f 249/13/3 250/14/3 252/16/3
f 250/14/3 251/15/3 252/16/3
f 253/9/4 254/10/4 256/12/4
f 254/10/4 255/11/4 256/12/4
f 257/9/5 258/26/5 260/12/5
f 258/26/5 259/27/5 260/12/5
f 261/24/6 262/14/6 264/28/6
f 262/14/6 263/15/6 264/28/6
usemtl Element
f 265/42/1 266/48/1 268/9/1
f 266/48/1 267/26/1 268/9/1
f 269/47/2 270/37/2 272/46/2
f 270/37/2 271/45/2 272/46/2
f 273/28/3 274/15/3 276/34/3
f 274/15/3 275/33/3 276/34/3
f 277/12/4 278/27/4 280/32/4
f 278/27/4 279/31/4 280/32/4
f 281/12/5 282/27/5 284/32/5
f 282/27/5 283/31/5 284/32/5
f 285/28/6 286/15/6 288/34/6
f 286/15/6 287/33/6 288/34/6
usemtl Element
f 289/1/1 290/2/1 292/4/1
f 290/2/1 291/3/1 292/4/1
f 293/5/2 294/6/2 296/8/2
f 294/6/2 295/7/2 296/8/2
f 297/37/3 298/38/3 300/40/3
f 298/38/3 299/39/3 300/40/3
f 301/1/4 302/2/4 304/4/4
f 302/2/4 303/3/4 304/4/4
f 305/2/5 306/57/5 308/3/5
f 306/57/5 307/58/5 308/3/5
f 309/59/6 310/37/6 312/60/6
f 310/37/6 311/40/6 312/60/6
usemtl Element
f 313/42/1 314/41/1 316/9/1
f 314/41/1 315/10/1 316/9/1
f 317/38/2 318/37/2 320/56/2
f 318/37/2 319/45/2 320/56/2
f 321/1/3 322/2/3 324/4/3
f 322/2/3 323/3/3 324/4/3
f 325/37/4 326/38/4 328/40/4
f 326/38/4 327/39/4 328/40/4
f 329/37/5 330/47/5 332/40/5
f 330/47/5 331/49/5 332/40/5
f 333/23/6 334/2/6 336/29/6
f 334/2/6 335/3/6 336/29/6
usemtl Element
f 337/23/1 338/2/1 340/29/1
f 338/2/1 339/3/1 340/29/1
f 341/5/2 342/25/2 344/8/2
f 342/25/2 343/30/2 344/8/2
f 345/45/3 346/46/3 348/37/3
f 346/46/3 347/47/3 348/37/3
f 349/21/4 350/22/4 352/23/4
f 350/22/4 351/2/4 352/23/4
f 353/22/5 354/61/5 356/2/5
f 354/61/5 355/57/5 356/2/5
f 357/62/6 358/45/6 360/59/6
f 358/45/6 359/37/6 360/59/6
usemtl Element
f 361/37/1 362/38/1 364/40/1
f 362/38/1 363/39/1 364/40/1
f 365/41/2 366/42/2 368/44/2
f 366/42/2 367/43/2 368/44/2
f 369/1/3 370/2/3 372/4/3
f 370/2/3 371/3/3 372/4/3
f 373/37/4 374/38/4 376/40/4
f 374/38/4 375/39/4 376/40/4
f 377/2/5 378/57/5 380/3/5
f 378/57/5 379/58/5 380/3/5
f 381/59/6 382/37/6 384/60/6
f 382/37/6 383/40/6 384/60/6
usemtl Element
f 385/45/1 386/46/1 388/37/1
f 386/46/1 387/47/1 388/37/1
f 389/26/2 390/9/2 392/48/2
f 390/9/2 391/42/2 392/48/2
f 393/23/3 394/2/3 396/29/3
f 394/2/3 395/3/3 396/29/3
f 397/37/4 398/47/4 400/40/4
f 398/47/4 399/49/4 400/40/4
f 401/23/5 402/2/5 404/29/5
f 402/2/5 403/3/5 404/29/5
f 405/37/6 406/47/6 408/40/6
f 406/47/6 407/49/6 408/40/6
usemtl Element
f 409/37/1 410/47/1 412/40/1
f 410/47/1 411/49/1 412/40/1
f 413/48/2 414/42/2 416/50/2
f 414/42/2 415/43/2 416/50/2
f 417/21/3 418/22/3 420/23/3
f 418/22/3 419/2/3 420/23/3
f 421/45/4 422/46/4 424/37/4
f 422/46/4 423/47/4 424/37/4
f 425/22/5 426/61/5 428/2/5
f 426/61/5 427/57/5 428/2/5
f 429/62/6 430/45/6 432/59/6
f 430/45/6 431/37/6 432/59/6
usemtl Element
f 433/25/1 434/5/1 436/28/1
f 434/5/1 435/15/1 436/28/1
f 437/2/2 438/23/2 440/52/2
f 438/23/2 439/51/2 440/52/2
f 441/37/3 442/47/3 444/40/3
f 442/47/3 443/49/3 444/40/3
f 445/23/4 446/2/4 448/29/4
f 446/2/4 447/3/4 448/29/4
f 449/37/5 450/38/5 452/40/5
f 450/38/5 451/39/5 452/40/5
f 453/1/6 454/2/6 456/4/6
f 454/2/6 455/3/6 456/4/6
usemtl Element
f 457/25/1 458/5/1 460/24/1
f 458/5/1 459/14/1 460/24/1
f 461/2/2 462/23/2 464/22/2
f 462/23/2 463/21/2 464/22/2
f 465/45/3 466/46/3 468/37/3
f 466/46/3 467/47/3 468/37/3
f 469/21/4 470/22/4 472/23/4
f 470/22/4 471/2/4 472/23/4
f 473/45/5 474/46/5 476/37/5
f 474/46/5 475/47/5 476/37/5
f 477/21/6 478/22/6 480/23/6
f 478/22/6 479/2/6 480/23/6
usemtl Element
f 481/9/1 482/26/1 484/12/1
f 482/26/1 483/27/1 484/12/1
f 485/46/2 486/45/2 488/55/2
f 486/45/2 487/54/2 488/55/2
f 489/23/3 490/2/3 492/29/3
f 490/2/3 491/3/3 492/29/3
f 493/37/4 494/47/4 496/40/4
f 494/47/4 495/49/4 496/40/4
f 497/47/5 498/38/5 500/49/5
f 498/38/5 499/39/5 500/49/5
f 501/1/6 502/23/6 504/4/6
f 502/23/6 503/29/6 504/4/6
usemtl Element
f 505/42/1 506/48/1 508/9/1
f 506/48/1 507/26/1 508/9/1
f 509/47/2 510/37/2 512/46/2
f 510/37/2 511/45/2 512/46/2
f 513/21/3 514/22/3 516/23/3
f 514/22/3 515/2/3 516/23/3
f 517/45/4 518/46/4 520/37/4
f 518/46/4 519/47/4 520/37/4
f 521/45/5 522/46/5 524/37/5
f 522/46/5 523/47/5 524/37/5
f 525/21/6 526/22/6 528/23/6
f 526/22/6 527/2/6 528/23/6
