# Export of Cubik Model: Cubik Model
# Designed by Queekusme with Cubik Studio - https://cubik.studio
# from Cubik OBJ Exporter v1.0
mtllib Infected.mtl
v -5 11 -0.5 1 1 1
v 5 11 -0.5 1 1 1
v 5 11 0.5 1 1 1
v -5 11 0.5 1 1 1
v 5 15 -0.5 1 1 1
v -5 15 -0.5 1 1 1
v -5 15 0.5 1 1 1
v 5 15 0.5 1 1 1
v 5 15 0.5 1 1 1
v -5 15 0.5 1 1 1
v -5 11 0.5 1 1 1
v 5 11 0.5 1 1 1
v -5 15 -0.5 1 1 1
v 5 15 -0.5 1 1 1
v 5 11 -0.5 1 1 1
v -5 11 -0.5 1 1 1
v 5 15 -0.5 1 1 1
v 5 15 0.5 1 1 1
v 5 11 0.5 1 1 1
v 5 11 -0.5 1 1 1
v -5 15 0.5 1 1 1
v -5 15 -0.5 1 1 1
v -5 11 -0.5 1 1 1
v -5 11 0.5 1 1 1
vn 0 -1 0
vn 0 1 0
vn 0 0 1
vn 0 0 -1
vn 1 0 0
vn -1 0 0
vt 0.40625 0.6640625
vt 0.09375 0.6640625
vt 0.09375 0.6484375
vt 0.40625 0.6484375
vt 0.40625 0.765625
vt 0.09375 0.765625
vt 0.09375 0.703125
vt 0.40625 0.703125
vt 0.265625 0.765625
vt 0.234375 0.765625
vt 0.234375 0.703125
vt 0.265625 0.703125
v 5 13 -0.5 1 1 1
v 6 13 -0.5 1 1 1
v 6 13 0.5 1 1 1
v 5 13 0.5 1 1 1
v 6 14 -0.5 1 1 1
v 5 14 -0.5 1 1 1
v 5 14 0.5 1 1 1
v 6 14 0.5 1 1 1
v 6 14 0.5 1 1 1
v 5 14 0.5 1 1 1
v 5 13 0.5 1 1 1
v 6 13 0.5 1 1 1
v 5 14 -0.5 1 1 1
v 6 14 -0.5 1 1 1
v 6 13 -0.5 1 1 1
v 5 13 -0.5 1 1 1
v 6 14 -0.5 1 1 1
v 6 14 0.5 1 1 1
v 6 13 0.5 1 1 1
v 6 13 -0.5 1 1 1
v 5 14 0.5 1 1 1
v 5 14 -0.5 1 1 1
v 5 13 -0.5 1 1 1
v 5 13 0.5 1 1 1
vt 0.0625 0.6640625
vt 0.0625 0.6484375
vt 0.4375 0.75
vt 0.40625 0.75
vt 0.40625 0.734375
vt 0.4375 0.734375
vt 0.09375 0.75
vt 0.0625 0.75
vt 0.0625 0.734375
vt 0.09375 0.734375
vt 0.265625 0.75
vt 0.234375 0.75
vt 0.234375 0.734375
vt 0.265625 0.734375
v -6 13 -0.5 1 1 1
v -5 13 -0.5 1 1 1
v -5 13 0.5 1 1 1
v -6 13 0.5 1 1 1
v -5 14 -0.5 1 1 1
v -6 14 -0.5 1 1 1
v -6 14 0.5 1 1 1
v -5 14 0.5 1 1 1
v -5 14 0.5 1 1 1
v -6 14 0.5 1 1 1
v -6 13 0.5 1 1 1
v -5 13 0.5 1 1 1
v -6 14 -0.5 1 1 1
v -5 14 -0.5 1 1 1
v -5 13 -0.5 1 1 1
v -6 13 -0.5 1 1 1
v -5 14 -0.5 1 1 1
v -5 14 0.5 1 1 1
v -5 13 0.5 1 1 1
v -5 13 -0.5 1 1 1
v -6 14 0.5 1 1 1
v -6 14 -0.5 1 1 1
v -6 13 -0.5 1 1 1
v -6 13 0.5 1 1 1
vt 0.4375 0.6640625
vt 0.4375 0.6484375
v 5 7 -0.5 1 1 1
v 7 7 -0.5 1 1 1
v 7 7 0.5 1 1 1
v 5 7 0.5 1 1 1
v 7 13 -0.5 1 1 1
v 5 13 -0.5 1 1 1
v 5 13 0.5 1 1 1
v 7 13 0.5 1 1 1
v 7 13 0.5 1 1 1
v 5 13 0.5 1 1 1
v 5 7 0.5 1 1 1
v 7 7 0.5 1 1 1
v 5 13 -0.5 1 1 1
v 7 13 -0.5 1 1 1
v 7 7 -0.5 1 1 1
v 5 7 -0.5 1 1 1
v 7 13 -0.5 1 1 1
v 7 13 0.5 1 1 1
v 7 7 0.5 1 1 1
v 7 7 -0.5 1 1 1
v 5 13 0.5 1 1 1
v 5 13 -0.5 1 1 1
v 5 7 -0.5 1 1 1
v 5 7 0.5 1 1 1
vt 0.03125 0.6640625
vt 0.03125 0.6484375
vt 0.46875 0.734375
vt 0.40625 0.640625
vt 0.46875 0.640625
vt 0.03125 0.734375
vt 0.03125 0.640625
vt 0.09375 0.640625
vt 0.234375 0.640625
vt 0.265625 0.640625
v -7 7 -0.5 1 1 1
v -5 7 -0.5 1 1 1
v -5 7 0.5 1 1 1
v -7 7 0.5 1 1 1
v -5 13 -0.5 1 1 1
v -7 13 -0.5 1 1 1
v -7 13 0.5 1 1 1
v -5 13 0.5 1 1 1
v -5 13 0.5 1 1 1
v -7 13 0.5 1 1 1
v -7 7 0.5 1 1 1
v -5 7 0.5 1 1 1
v -7 13 -0.5 1 1 1
v -5 13 -0.5 1 1 1
v -5 7 -0.5 1 1 1
v -7 7 -0.5 1 1 1
v -5 13 -0.5 1 1 1
v -5 13 0.5 1 1 1
v -5 7 0.5 1 1 1
v -5 7 -0.5 1 1 1
v -7 13 0.5 1 1 1
v -7 13 -0.5 1 1 1
v -7 7 -0.5 1 1 1
v -7 7 0.5 1 1 1
vt 0.46875 0.6640625
vt 0.46875 0.6484375
v 4 7 -0.5 1 1 1
v 5 7 -0.5 1 1 1
v 5 7 0.5 1 1 1
v 4 7 0.5 1 1 1
v 5 12 -0.5 1 1 1
v 4 12 -0.5 1 1 1
v 4 12 0.5 1 1 1
v 5 12 0.5 1 1 1
v 5 12 0.5 1 1 1
v 4 12 0.5 1 1 1
v 4 7 0.5 1 1 1
v 5 7 0.5 1 1 1
v 4 12 -0.5 1 1 1
v 5 12 -0.5 1 1 1
v 5 7 -0.5 1 1 1
v 4 7 -0.5 1 1 1
v 5 12 -0.5 1 1 1
v 5 12 0.5 1 1 1
v 5 7 0.5 1 1 1
v 5 7 -0.5 1 1 1
v 4 12 0.5 1 1 1
v 4 12 -0.5 1 1 1
v 4 7 -0.5 1 1 1
v 4 7 0.5 1 1 1
vt 0.125 0.6640625
vt 0.125 0.6484375
vt 0.40625 0.71875
vt 0.375 0.71875
vt 0.375 0.640625
vt 0.125 0.71875
vt 0.09375 0.71875
vt 0.125 0.640625
vt 0.265625 0.71875
vt 0.234375 0.71875
v -5 7 -0.5 1 1 1
v -4 7 -0.5 1 1 1
v -4 7 0.5 1 1 1
v -5 7 0.5 1 1 1
v -4 12 -0.5 1 1 1
v -5 12 -0.5 1 1 1
v -5 12 0.5 1 1 1
v -4 12 0.5 1 1 1
v -4 12 0.5 1 1 1
v -5 12 0.5 1 1 1
v -5 7 0.5 1 1 1
v -4 7 0.5 1 1 1
v -5 12 -0.5 1 1 1
v -4 12 -0.5 1 1 1
v -4 7 -0.5 1 1 1
v -5 7 -0.5 1 1 1
v -4 12 -0.5 1 1 1
v -4 12 0.5 1 1 1
v -4 7 0.5 1 1 1
v -4 7 -0.5 1 1 1
v -5 12 0.5 1 1 1
v -5 12 -0.5 1 1 1
v -5 7 -0.5 1 1 1
v -5 7 0.5 1 1 1
vt 0.375 0.6640625
vt 0.375 0.6484375
v -1 5 -0.5 1 1 1
v 1 5 -0.5 1 1 1
v 1 5 0.5 1 1 1
v -1 5 0.5 1 1 1
v 1 6 -0.5 1 1 1
v -1 6 -0.5 1 1 1
v -1 6 0.5 1 1 1
v 1 6 0.5 1 1 1
v 1 6 0.5 1 1 1
v -1 6 0.5 1 1 1
v -1 5 0.5 1 1 1
v 1 5 0.5 1 1 1
v -1 6 -0.5 1 1 1
v 1 6 -0.5 1 1 1
v 1 5 -0.5 1 1 1
v -1 5 -0.5 1 1 1
v 1 6 -0.5 1 1 1
v 1 6 0.5 1 1 1
v 1 5 0.5 1 1 1
v 1 5 -0.5 1 1 1
v -1 6 0.5 1 1 1
v -1 6 -0.5 1 1 1
v -1 5 -0.5 1 1 1
v -1 5 0.5 1 1 1
vt 0.28125 0.6640625
vt 0.21875 0.6640625
vt 0.21875 0.6484375
vt 0.28125 0.6484375
vt 0.28125 0.625
vt 0.21875 0.625
vt 0.21875 0.609375
vt 0.28125 0.609375
vt 0.265625 0.625
vt 0.234375 0.625
vt 0.234375 0.609375
vt 0.265625 0.609375
v 3 9 -0.5 1 1 1
v 4 9 -0.5 1 1 1
v 4 9 0.5 1 1 1
v 3 9 0.5 1 1 1
v 4 10 -0.5 1 1 1
v 3 10 -0.5 1 1 1
v 3 10 0.5 1 1 1
v 4 10 0.5 1 1 1
v 4 10 0.5 1 1 1
v 3 10 0.5 1 1 1
v 3 9 0.5 1 1 1
v 4 9 0.5 1 1 1
v 3 10 -0.5 1 1 1
v 4 10 -0.5 1 1 1
v 4 9 -0.5 1 1 1
v 3 9 -0.5 1 1 1
v 4 10 -0.5 1 1 1
v 4 10 0.5 1 1 1
v 4 9 0.5 1 1 1
v 4 9 -0.5 1 1 1
v 3 10 0.5 1 1 1
v 3 10 -0.5 1 1 1
v 3 9 -0.5 1 1 1
v 3 9 0.5 1 1 1
vt 0.15625 0.6640625
vt 0.15625 0.6484375
vt 0.375 0.6875
vt 0.34375 0.6875
vt 0.34375 0.671875
vt 0.375 0.671875
vt 0.15625 0.6875
vt 0.125 0.6875
vt 0.125 0.671875
vt 0.15625 0.671875
vt 0.265625 0.6875
vt 0.234375 0.6875
vt 0.234375 0.671875
vt 0.265625 0.671875
v 1 9 -0.5 1 1 1
v 2 9 -0.5 1 1 1
v 2 9 0.5 1 1 1
v 1 9 0.5 1 1 1
v 2 10 -0.5 1 1 1
v 1 10 -0.5 1 1 1
v 1 10 0.5 1 1 1
v 2 10 0.5 1 1 1
v 2 10 0.5 1 1 1
v 1 10 0.5 1 1 1
v 1 9 0.5 1 1 1
v 2 9 0.5 1 1 1
v 1 10 -0.5 1 1 1
v 2 10 -0.5 1 1 1
v 2 9 -0.5 1 1 1
v 1 9 -0.5 1 1 1
v 2 10 -0.5 1 1 1
v 2 10 0.5 1 1 1
v 2 9 0.5 1 1 1
v 2 9 -0.5 1 1 1
v 1 10 0.5 1 1 1
v 1 10 -0.5 1 1 1
v 1 9 -0.5 1 1 1
v 1 9 0.5 1 1 1
vt 0.1875 0.6640625
vt 0.1875 0.6484375
vt 0.3125 0.6875
vt 0.28125 0.6875
vt 0.28125 0.671875
vt 0.3125 0.671875
vt 0.21875 0.6875
vt 0.1875 0.6875
vt 0.1875 0.671875
vt 0.21875 0.671875
v -2 9 -0.5 1 1 1
v -1 9 -0.5 1 1 1
v -1 9 0.5 1 1 1
v -2 9 0.5 1 1 1
v -1 10 -0.5 1 1 1
v -2 10 -0.5 1 1 1
v -2 10 0.5 1 1 1
v -1 10 0.5 1 1 1
v -1 10 0.5 1 1 1
v -2 10 0.5 1 1 1
v -2 9 0.5 1 1 1
v -1 9 0.5 1 1 1
v -2 10 -0.5 1 1 1
v -1 10 -0.5 1 1 1
v -1 9 -0.5 1 1 1
v -2 9 -0.5 1 1 1
v -1 10 -0.5 1 1 1
v -1 10 0.5 1 1 1
v -1 9 0.5 1 1 1
v -1 9 -0.5 1 1 1
v -2 10 0.5 1 1 1
v -2 10 -0.5 1 1 1
v -2 9 -0.5 1 1 1
v -2 9 0.5 1 1 1
vt 0.3125 0.6640625
vt 0.3125 0.6484375
v -4 9 -0.5 1 1 1
v -3 9 -0.5 1 1 1
v -3 9 0.5 1 1 1
v -4 9 0.5 1 1 1
v -3 10 -0.5 1 1 1
v -4 10 -0.5 1 1 1
v -4 10 0.5 1 1 1
v -3 10 0.5 1 1 1
v -3 10 0.5 1 1 1
v -4 10 0.5 1 1 1
v -4 9 0.5 1 1 1
v -3 9 0.5 1 1 1
v -4 10 -0.5 1 1 1
v -3 10 -0.5 1 1 1
v -3 9 -0.5 1 1 1
v -4 9 -0.5 1 1 1
v -3 10 -0.5 1 1 1
v -3 10 0.5 1 1 1
v -3 9 0.5 1 1 1
v -3 9 -0.5 1 1 1
v -4 10 0.5 1 1 1
v -4 10 -0.5 1 1 1
v -4 9 -0.5 1 1 1
v -4 9 0.5 1 1 1
vt 0.34375 0.6640625
vt 0.34375 0.6484375
v 1 5 -0.5 1 1 1
v 4 5 -0.5 1 1 1
v 4 5 0.5 1 1 1
v 1 5 0.5 1 1 1
v 4 9 -0.5 1 1 1
v 1 9 -0.5 1 1 1
v 1 9 0.5 1 1 1
v 4 9 0.5 1 1 1
v 4 9 0.5 1 1 1
v 1 9 0.5 1 1 1
v 1 5 0.5 1 1 1
v 4 5 0.5 1 1 1
v 1 9 -0.5 1 1 1
v 4 9 -0.5 1 1 1
v 4 5 -0.5 1 1 1
v 1 5 -0.5 1 1 1
v 4 9 -0.5 1 1 1
v 4 9 0.5 1 1 1
v 4 5 0.5 1 1 1
v 4 5 -0.5 1 1 1
v 1 9 0.5 1 1 1
v 1 9 -0.5 1 1 1
v 1 5 -0.5 1 1 1
v 1 5 0.5 1 1 1
vt 0.375 0.609375
vt 0.125 0.609375
v -4 5 -0.5 1 1 1
v -1 5 -0.5 1 1 1
v -1 5 0.5 1 1 1
v -4 5 0.5 1 1 1
v -1 9 -0.5 1 1 1
v -4 9 -0.5 1 1 1
v -4 9 0.5 1 1 1
v -1 9 0.5 1 1 1
v -1 9 0.5 1 1 1
v -4 9 0.5 1 1 1
v -4 5 0.5 1 1 1
v -1 5 0.5 1 1 1
v -4 9 -0.5 1 1 1
v -1 9 -0.5 1 1 1
v -1 5 -0.5 1 1 1
v -4 5 -0.5 1 1 1
v -1 9 -0.5 1 1 1
v -1 9 0.5 1 1 1
v -1 5 0.5 1 1 1
v -1 5 -0.5 1 1 1
v -4 9 0.5 1 1 1
v -4 9 -0.5 1 1 1
v -4 5 -0.5 1 1 1
v -4 5 0.5 1 1 1
v 4 6 -0.5 1 1 1
v 6 6 -0.5 1 1 1
v 6 6 0.5 1 1 1
v 4 6 0.5 1 1 1
v 6 7 -0.5 1 1 1
v 4 7 -0.5 1 1 1
v 4 7 0.5 1 1 1
v 6 7 0.5 1 1 1
v 6 7 0.5 1 1 1
v 4 7 0.5 1 1 1
v 4 6 0.5 1 1 1
v 6 6 0.5 1 1 1
v 4 7 -0.5 1 1 1
v 6 7 -0.5 1 1 1
v 6 6 -0.5 1 1 1
v 4 6 -0.5 1 1 1
v 6 7 -0.5 1 1 1
v 6 7 0.5 1 1 1
v 6 6 0.5 1 1 1
v 6 6 -0.5 1 1 1
v 4 7 0.5 1 1 1
v 4 7 -0.5 1 1 1
v 4 6 -0.5 1 1 1
v 4 6 0.5 1 1 1
vt 0.4375 0.640625
vt 0.375 0.625
vt 0.4375 0.625
vt 0.0625 0.640625
vt 0.0625 0.625
vt 0.125 0.625
v -6 6 -0.5 1 1 1
v -4 6 -0.5 1 1 1
v -4 6 0.5 1 1 1
v -6 6 0.5 1 1 1
v -4 7 -0.5 1 1 1
v -6 7 -0.5 1 1 1
v -6 7 0.5 1 1 1
v -4 7 0.5 1 1 1
v -4 7 0.5 1 1 1
v -6 7 0.5 1 1 1
v -6 6 0.5 1 1 1
v -4 6 0.5 1 1 1
v -6 7 -0.5 1 1 1
v -4 7 -0.5 1 1 1
v -4 6 -0.5 1 1 1
v -6 6 -0.5 1 1 1
v -4 7 -0.5 1 1 1
v -4 7 0.5 1 1 1
v -4 6 0.5 1 1 1
v -4 6 -0.5 1 1 1
v -6 7 0.5 1 1 1
v -6 7 -0.5 1 1 1
v -6 6 -0.5 1 1 1
v -6 6 0.5 1 1 1
v 4 5 -0.5 1 1 1
v 5 5 -0.5 1 1 1
v 5 5 0.5 1 1 1
v 4 5 0.5 1 1 1
v 5 6 -0.5 1 1 1
v 4 6 -0.5 1 1 1
v 4 6 0.5 1 1 1
v 5 6 0.5 1 1 1
v 5 6 0.5 1 1 1
v 4 6 0.5 1 1 1
v 4 5 0.5 1 1 1
v 5 5 0.5 1 1 1
v 4 6 -0.5 1 1 1
v 5 6 -0.5 1 1 1
v 5 5 -0.5 1 1 1
v 4 5 -0.5 1 1 1
v 5 6 -0.5 1 1 1
v 5 6 0.5 1 1 1
v 5 5 0.5 1 1 1
v 5 5 -0.5 1 1 1
v 4 6 0.5 1 1 1
v 4 6 -0.5 1 1 1
v 4 5 -0.5 1 1 1
v 4 5 0.5 1 1 1
vt 0.40625 0.625
vt 0.40625 0.609375
vt 0.09375 0.625
vt 0.09375 0.609375
v -5 5 -0.5 1 1 1
v -4 5 -0.5 1 1 1
v -4 5 0.5 1 1 1
v -5 5 0.5 1 1 1
v -4 6 -0.5 1 1 1
v -5 6 -0.5 1 1 1
v -5 6 0.5 1 1 1
v -4 6 0.5 1 1 1
v -4 6 0.5 1 1 1
v -5 6 0.5 1 1 1
v -5 5 0.5 1 1 1
v -4 5 0.5 1 1 1
v -5 6 -0.5 1 1 1
v -4 6 -0.5 1 1 1
v -4 5 -0.5 1 1 1
v -5 5 -0.5 1 1 1
v -4 6 -0.5 1 1 1
v -4 6 0.5 1 1 1
v -4 5 0.5 1 1 1
v -4 5 -0.5 1 1 1
v -5 6 0.5 1 1 1
v -5 6 -0.5 1 1 1
v -5 5 -0.5 1 1 1
v -5 5 0.5 1 1 1
v -3 1 -0.5 1 1 1
v 3 1 -0.5 1 1 1
v 3 1 0.5 1 1 1
v -3 1 0.5 1 1 1
v 3 3.5 -0.5 1 1 1
v -3 3.5 -0.5 1 1 1
v -3 3.5 0.5 1 1 1
v 3 3.5 0.5 1 1 1
v 3 3.5 0.5 1 1 1
v -3 3.5 0.5 1 1 1
v -3 1 0.5 1 1 1
v 3 1 0.5 1 1 1
v -3 3.5 -0.5 1 1 1
v 3 3.5 -0.5 1 1 1
v 3 1 -0.5 1 1 1
v -3 1 -0.5 1 1 1
v 3 3.5 -0.5 1 1 1
v 3 3.5 0.5 1 1 1
v 3 1 0.5 1 1 1
v 3 1 -0.5 1 1 1
v -3 3.5 0.5 1 1 1
v -3 3.5 -0.5 1 1 1
v -3 1 -0.5 1 1 1
v -3 1 0.5 1 1 1
vt 0.34375 0.5859375
vt 0.15625 0.5859375
vt 0.15625 0.546875
vt 0.34375 0.546875
vt 0.265625 0.5859375
vt 0.234375 0.5859375
vt 0.234375 0.546875
vt 0.265625 0.546875
v 2 4 -0.5 1 1 1
v 4 4 -0.5 1 1 1
v 4 4 0.5 1 1 1
v 2 4 0.5 1 1 1
v 4 5 -0.5 1 1 1
v 2 5 -0.5 1 1 1
v 2 5 0.5 1 1 1
v 4 5 0.5 1 1 1
v 4 5 0.5 1 1 1
v 2 5 0.5 1 1 1
v 2 4 0.5 1 1 1
v 4 4 0.5 1 1 1
v 2 5 -0.5 1 1 1
v 4 5 -0.5 1 1 1
v 4 4 -0.5 1 1 1
v 2 4 -0.5 1 1 1
v 4 5 -0.5 1 1 1
v 4 5 0.5 1 1 1
v 4 4 0.5 1 1 1
v 4 4 -0.5 1 1 1
v 2 5 0.5 1 1 1
v 2 5 -0.5 1 1 1
v 2 4 -0.5 1 1 1
v 2 4 0.5 1 1 1
vt 0.3125 0.609375
vt 0.3125 0.59375
vt 0.375 0.59375
vt 0.1875 0.609375
vt 0.125 0.59375
vt 0.1875 0.59375
vt 0.234375 0.59375
vt 0.265625 0.59375
v -4 4 -0.5 1 1 1
v -2 4 -0.5 1 1 1
v -2 4 0.5 1 1 1
v -4 4 0.5 1 1 1
v -2 5 -0.5 1 1 1
v -4 5 -0.5 1 1 1
v -4 5 0.5 1 1 1
v -2 5 0.5 1 1 1
v -2 5 0.5 1 1 1
v -4 5 0.5 1 1 1
v -4 4 0.5 1 1 1
v -2 4 0.5 1 1 1
v -4 5 -0.5 1 1 1
v -2 5 -0.5 1 1 1
v -2 4 -0.5 1 1 1
v -4 4 -0.5 1 1 1
v -2 5 -0.5 1 1 1
v -2 5 0.5 1 1 1
v -2 4 0.5 1 1 1
v -2 4 -0.5 1 1 1
v -4 5 0.5 1 1 1
v -4 5 -0.5 1 1 1
v -4 4 -0.5 1 1 1
v -4 4 0.5 1 1 1
v 3 2 -0.5 1 1 1
v 4 2 -0.5 1 1 1
v 4 2 0.5 1 1 1
v 3 2 0.5 1 1 1
v 4 4 -0.5 1 1 1
v 3 4 -0.5 1 1 1
v 3 4 0.5 1 1 1
v 4 4 0.5 1 1 1
v 4 4 0.5 1 1 1
v 3 4 0.5 1 1 1
v 3 2 0.5 1 1 1
v 4 2 0.5 1 1 1
v 3 4 -0.5 1 1 1
v 4 4 -0.5 1 1 1
v 4 2 -0.5 1 1 1
v 3 2 -0.5 1 1 1
v 4 4 -0.5 1 1 1
v 4 4 0.5 1 1 1
v 4 2 0.5 1 1 1
v 4 2 -0.5 1 1 1
v 3 4 0.5 1 1 1
v 3 4 -0.5 1 1 1
v 3 2 -0.5 1 1 1
v 3 2 0.5 1 1 1
vt 0.34375 0.59375
vt 0.34375 0.5625
vt 0.375 0.5625
vt 0.15625 0.59375
vt 0.125 0.5625
vt 0.15625 0.5625
vt 0.234375 0.5625
vt 0.265625 0.5625
v -4 2 -0.5 1 1 1
v -3 2 -0.5 1 1 1
v -3 2 0.5 1 1 1
v -4 2 0.5 1 1 1
v -3 4 -0.5 1 1 1
v -4 4 -0.5 1 1 1
v -4 4 0.5 1 1 1
v -3 4 0.5 1 1 1
v -3 4 0.5 1 1 1
v -4 4 0.5 1 1 1
v -4 2 0.5 1 1 1
v -3 2 0.5 1 1 1
v -4 4 -0.5 1 1 1
v -3 4 -0.5 1 1 1
v -3 2 -0.5 1 1 1
v -4 2 -0.5 1 1 1
v -3 4 -0.5 1 1 1
v -3 4 0.5 1 1 1
v -3 2 0.5 1 1 1
v -3 2 -0.5 1 1 1
v -4 4 0.5 1 1 1
v -4 4 -0.5 1 1 1
v -4 2 -0.5 1 1 1
v -4 2 0.5 1 1 1
v 1 3.5 -0.5 1 1 1
v 3 3.5 -0.5 1 1 1
v 3 3.5 0.5 1 1 1
v 1 3.5 0.5 1 1 1
v 3 4 -0.5 1 1 1
v 1 4 -0.5 1 1 1
v 1 4 0.5 1 1 1
v 3 4 0.5 1 1 1
v 3 4 0.5 1 1 1
v 1 4 0.5 1 1 1
v 1 3.5 0.5 1 1 1
v 3 3.5 0.5 1 1 1
v 1 4 -0.5 1 1 1
v 3 4 -0.5 1 1 1
v 3 3.5 -0.5 1 1 1
v 1 3.5 -0.5 1 1 1
v 3 4 -0.5 1 1 1
v 3 4 0.5 1 1 1
v 3 3.5 0.5 1 1 1
v 3 3.5 -0.5 1 1 1
v 1 4 0.5 1 1 1
v 1 4 -0.5 1 1 1
v 1 3.5 -0.5 1 1 1
v 1 3.5 0.5 1 1 1
vt 0.28125 0.59375
vt 0.28125 0.5859375
vt 0.21875 0.59375
vt 0.21875 0.5859375
v -3 3.5 -0.5 1 1 1
v -1 3.5 -0.5 1 1 1
v -1 3.5 0.5 1 1 1
v -3 3.5 0.5 1 1 1
v -1 4 -0.5 1 1 1
v -3 4 -0.5 1 1 1
v -3 4 0.5 1 1 1
v -1 4 0.5 1 1 1
v -1 4 0.5 1 1 1
v -3 4 0.5 1 1 1
v -3 3.5 0.5 1 1 1
v -1 3.5 0.5 1 1 1
v -3 4 -0.5 1 1 1
v -1 4 -0.5 1 1 1
v -1 3.5 -0.5 1 1 1
v -3 3.5 -0.5 1 1 1
v -1 4 -0.5 1 1 1
v -1 4 0.5 1 1 1
v -1 3.5 0.5 1 1 1
v -1 3.5 -0.5 1 1 1
v -3 4 0.5 1 1 1
v -3 4 -0.5 1 1 1
v -3 3.5 -0.5 1 1 1
v -3 3.5 0.5 1 1 1
v 0.5 6.5 -0.5 1 1 1
v 1 6.5 -0.5 1 1 1
v 1 6.5 0.5 1 1 1
v 0.5 6.5 0.5 1 1 1
v 1 11 -0.5 1 1 1
v 0.5 11 -0.5 1 1 1
v 0.5 11 0.5 1 1 1
v 1 11 0.5 1 1 1
v 1 11 0.5 1 1 1
v 0.5 11 0.5 1 1 1
v 0.5 6.5 0.5 1 1 1
v 1 6.5 0.5 1 1 1
v 0.5 11 -0.5 1 1 1
v 1 11 -0.5 1 1 1
v 1 6.5 -0.5 1 1 1
v 0.5 6.5 -0.5 1 1 1
v 1 11 -0.5 1 1 1
v 1 11 0.5 1 1 1
v 1 6.5 0.5 1 1 1
v 1 6.5 -0.5 1 1 1
v 0.5 11 0.5 1 1 1
v 0.5 11 -0.5 1 1 1
v 0.5 6.5 -0.5 1 1 1
v 0.5 6.5 0.5 1 1 1
vt 0.234375 0.6640625
vt 0.234375 0.6484375
vt 0.28125 0.703125
vt 0.265625 0.6328125
vt 0.28125 0.6328125
vt 0.21875 0.703125
vt 0.21875 0.6328125
vt 0.234375 0.6328125
v -1 6.5 -0.5 1 1 1
v -0.5 6.5 -0.5 1 1 1
v -0.5 6.5 0.5 1 1 1
v -1 6.5 0.5 1 1 1
v -0.5 11 -0.5 1 1 1
v -1 11 -0.5 1 1 1
v -1 11 0.5 1 1 1
v -0.5 11 0.5 1 1 1
v -0.5 11 0.5 1 1 1
v -1 11 0.5 1 1 1
v -1 6.5 0.5 1 1 1
v -0.5 6.5 0.5 1 1 1
v -1 11 -0.5 1 1 1
v -0.5 11 -0.5 1 1 1
v -0.5 6.5 -0.5 1 1 1
v -1 6.5 -0.5 1 1 1
v -0.5 11 -0.5 1 1 1
v -0.5 11 0.5 1 1 1
v -0.5 6.5 0.5 1 1 1
v -0.5 6.5 -0.5 1 1 1
v -1 11 0.5 1 1 1
v -1 11 -0.5 1 1 1
v -1 6.5 -0.5 1 1 1
v -1 6.5 0.5 1 1 1
vt 0.265625 0.6640625
vt 0.265625 0.6484375
v -0.5 7 -0.5 1 1 1
v 0.5 7 -0.5 1 1 1
v 0.5 7 0.5 1 1 1
v -0.5 7 0.5 1 1 1
v 0.5 11 -0.5 1 1 1
v -0.5 11 -0.5 1 1 1
v -0.5 11 0.5 1 1 1
v 0.5 11 0.5 1 1 1
v 0.5 11 0.5 1 1 1
v -0.5 11 0.5 1 1 1
v -0.5 7 0.5 1 1 1
v 0.5 7 0.5 1 1 1
v -0.5 11 -0.5 1 1 1
v 0.5 11 -0.5 1 1 1
v 0.5 7 -0.5 1 1 1
v -0.5 7 -0.5 1 1 1
v 0.5 11 -0.5 1 1 1
v 0.5 11 0.5 1 1 1
v 0.5 7 0.5 1 1 1
v 0.5 7 -0.5 1 1 1
v -0.5 11 0.5 1 1 1
v -0.5 11 -0.5 1 1 1
v -0.5 7 -0.5 1 1 1
v -0.5 7 0.5 1 1 1
usemtl Element
f 1/1/1 2/2/1 4/4/1
f 2/2/1 3/3/1 4/4/1
f 5/3/2 6/4/2 8/2/2
f 6/4/2 7/1/2 8/2/2
f 9/5/3 10/6/3 12/8/3
f 10/6/3 11/7/3 12/8/3
f 13/5/4 14/6/4 16/8/4
f 14/6/4 15/7/4 16/8/4
f 17/9/5 18/10/5 20/12/5
f 18/10/5 19/11/5 20/12/5
f 21/9/6 22/10/6 24/12/6
f 22/10/6 23/11/6 24/12/6
usemtl Element
f 25/2/1 26/13/1 28/3/1
f 26/13/1 27/14/1 28/3/1
f 29/14/2 30/3/2 32/13/2
f 30/3/2 31/2/2 32/13/2
f 33/15/3 34/16/3 36/18/3
f 34/16/3 35/17/3 36/18/3
f 37/19/4 38/20/4 40/22/4
f 38/20/4 39/21/4 40/22/4
f 41/23/5 42/24/5 44/26/5
f 42/24/5 43/25/5 44/26/5
f 45/23/6 46/24/6 48/26/6
f 46/24/6 47/25/6 48/26/6
usemtl Element
f 49/27/1 50/1/1 52/28/1
f 50/1/1 51/4/1 52/28/1
f 53/4/2 54/28/2 56/1/2
f 54/28/2 55/27/2 56/1/2
f 57/19/3 58/20/3 60/22/3
f 58/20/3 59/21/3 60/22/3
f 61/15/4 62/16/4 64/18/4
f 62/16/4 63/17/4 64/18/4
f 65/23/5 66/24/5 68/26/5
f 66/24/5 67/25/5 68/26/5
f 69/23/6 70/24/6 72/26/6
f 70/24/6 71/25/6 72/26/6
usemtl Element
f 73/2/1 74/29/1 76/3/1
f 74/29/1 75/30/1 76/3/1
f 77/30/2 78/3/2 80/29/2
f 78/3/2 79/2/2 80/29/2
f 81/31/3 82/17/3 84/33/3
f 82/17/3 83/32/3 84/33/3
f 85/22/4 86/34/4 88/36/4
f 86/34/4 87/35/4 88/36/4
f 89/26/5 90/25/5 92/38/5
f 90/25/5 91/37/5 92/38/5
f 93/26/6 94/25/6 96/38/6
f 94/25/6 95/37/6 96/38/6
usemtl Element
f 97/39/1 98/1/1 100/40/1
f 98/1/1 99/4/1 100/40/1
f 101/4/2 102/40/2 104/1/2
f 102/40/2 103/39/2 104/1/2
f 105/22/3 106/34/3 108/36/3
f 106/34/3 107/35/3 108/36/3
f 109/31/4 110/17/4 112/33/4
f 110/17/4 111/32/4 112/33/4
f 113/26/5 114/25/5 116/38/5
f 114/25/5 115/37/5 116/38/5
f 117/26/6 118/25/6 120/38/6
f 118/25/6 119/37/6 120/38/6
usemtl Element
f 121/41/1 122/2/1 124/42/1
f 122/2/1 123/3/1 124/42/1
f 125/3/2 126/42/2 128/2/2
f 126/42/2 127/41/2 128/2/2
f 129/43/3 130/44/3 132/32/3
f 130/44/3 131/45/3 132/32/3
f 133/46/4 134/47/4 136/48/4
f 134/47/4 135/36/4 136/48/4
f 137/49/5 138/50/5 140/38/5
f 138/50/5 139/37/5 140/38/5
f 141/49/6 142/50/6 144/38/6
f 142/50/6 143/37/6 144/38/6
usemtl Element
f 145/1/1 146/51/1 148/4/1
f 146/51/1 147/52/1 148/4/1
f 149/52/2 150/4/2 152/51/2
f 150/4/2 151/1/2 152/51/2
f 153/46/3 154/47/3 156/48/3
f 154/47/3 155/36/3 156/48/3
f 157/43/4 158/44/4 160/32/4
f 158/44/4 159/45/4 160/32/4
f 161/49/5 162/50/5 164/38/5
f 162/50/5 163/37/5 164/38/5
f 165/49/6 166/50/6 168/38/6
f 166/50/6 167/37/6 168/38/6
usemtl Element
f 169/53/1 170/54/1 172/56/1
f 170/54/1 171/55/1 172/56/1
f 173/55/2 174/56/2 176/54/2
f 174/56/2 175/53/2 176/54/2
f 177/57/3 178/58/3 180/60/3
f 178/58/3 179/59/3 180/60/3
f 181/57/4 182/58/4 184/60/4
f 182/58/4 183/59/4 184/60/4
f 185/61/5 186/62/5 188/64/5
f 186/62/5 187/63/5 188/64/5
f 189/61/6 190/62/6 192/64/6
f 190/62/6 191/63/6 192/64/6
usemtl Element
f 193/65/1 194/41/1 196/66/1
f 194/41/1 195/42/1 196/66/1
f 197/42/2 198/66/2 200/41/2
f 198/66/2 199/65/2 200/41/2
f 201/67/3 202/68/3 204/70/3
f 202/68/3 203/69/3 204/70/3
f 205/71/4 206/72/4 208/74/4
f 206/72/4 207/73/4 208/74/4
f 209/75/5 210/76/5 212/78/5
f 210/76/5 211/77/5 212/78/5
f 213/75/6 214/76/6 216/78/6
f 214/76/6 215/77/6 216/78/6
usemtl Element
f 217/54/1 218/79/1 220/55/1
f 218/79/1 219/80/1 220/55/1
f 221/80/2 222/55/2 224/79/2
f 222/55/2 223/54/2 224/79/2
f 225/81/3 226/82/3 228/84/3
f 226/82/3 227/83/3 228/84/3
f 229/85/4 230/86/4 232/88/4
f 230/86/4 231/87/4 232/88/4
f 233/75/5 234/76/5 236/78/5
f 234/76/5 235/77/5 236/78/5
f 237/75/6 238/76/6 240/78/6
f 238/76/6 239/77/6 240/78/6
usemtl Element
f 241/89/1 242/53/1 244/90/1
f 242/53/1 243/56/1 244/90/1
f 245/56/2 246/90/2 248/53/2
f 246/90/2 247/89/2 248/53/2
f 249/85/3 250/86/3 252/88/3
f 250/86/3 251/87/3 252/88/3
f 253/81/4 254/82/4 256/84/4
f 254/82/4 255/83/4 256/84/4
f 257/75/5 258/76/5 260/78/5
f 258/76/5 259/77/5 260/78/5
f 261/75/6 262/76/6 264/78/6
f 262/76/6 263/77/6 264/78/6
usemtl Element
f 265/51/1 266/91/1 268/52/1
f 266/91/1 267/92/1 268/52/1
f 269/92/2 270/52/2 272/91/2
f 270/52/2 271/51/2 272/91/2
f 273/71/3 274/72/3 276/74/3
f 274/72/3 275/73/3 276/74/3
f 277/67/4 278/68/4 280/70/4
f 278/68/4 279/69/4 280/70/4
f 281/75/5 282/76/5 284/78/5
f 282/76/5 283/77/5 284/78/5
f 285/75/6 286/76/6 288/78/6
f 286/76/6 287/77/6 288/78/6
usemtl Element
f 289/54/1 290/41/1 292/55/1
f 290/41/1 291/42/1 292/55/1
f 293/42/2 294/55/2 296/41/2
f 294/55/2 295/54/2 296/41/2
f 297/70/3 298/83/3 300/93/3
f 298/83/3 299/60/3 300/93/3
f 301/88/4 302/73/4 304/59/4
f 302/73/4 303/94/4 304/59/4
f 305/78/5 306/77/5 308/64/5
f 306/77/5 307/63/5 308/64/5
f 309/78/6 310/77/6 312/64/6
f 310/77/6 311/63/6 312/64/6
usemtl Element
f 313/51/1 314/53/1 316/52/1
f 314/53/1 315/56/1 316/52/1
f 317/56/2 318/52/2 320/53/2
f 318/52/2 319/51/2 320/53/2
f 321/88/3 322/73/3 324/59/3
f 322/73/3 323/94/3 324/59/3
f 325/70/4 326/83/4 328/93/4
f 326/83/4 327/60/4 328/93/4
f 329/78/5 330/77/5 332/64/5
f 330/77/5 331/63/5 332/64/5
f 333/78/6 334/77/6 336/64/6
f 334/77/6 335/63/6 336/64/6
usemtl Element
f 337/41/1 338/13/1 340/42/1
f 338/13/1 339/14/1 340/42/1
f 341/14/2 342/42/2 344/13/2
f 342/42/2 343/41/2 344/13/2
f 345/95/3 346/45/3 348/97/3
f 346/45/3 347/96/3 348/97/3
f 349/48/4 350/98/4 352/100/4
f 350/98/4 351/99/4 352/100/4
f 353/38/5 354/37/5 356/61/5
f 354/37/5 355/62/5 356/61/5
f 357/38/6 358/37/6 360/61/6
f 358/37/6 359/62/6 360/61/6
usemtl Element
f 361/27/1 362/51/1 364/28/1
f 362/51/1 363/52/1 364/28/1
f 365/52/2 366/28/2 368/51/2
f 366/28/2 367/27/2 368/51/2
f 369/48/3 370/98/3 372/100/3
f 370/98/3 371/99/3 372/100/3
f 373/95/4 374/45/4 376/97/4
f 374/45/4 375/96/4 376/97/4
f 377/38/5 378/37/5 380/61/5
f 378/37/5 379/62/5 380/61/5
f 381/38/6 382/37/6 384/61/6
f 382/37/6 383/62/6 384/61/6
usemtl Element
f 385/41/1 386/2/1 388/42/1
f 386/2/1 387/3/1 388/42/1
f 389/3/2 390/42/2 392/2/2
f 390/42/2 391/41/2 392/2/2
f 393/101/3 394/96/3 396/102/3
f 394/96/3 395/93/3 396/102/3
f 397/100/4 398/103/4 400/94/4
f 398/103/4 399/104/4 400/94/4
f 401/61/5 402/62/5 404/64/5
f 402/62/5 403/63/5 404/64/5
f 405/61/6 406/62/6 408/64/6
f 406/62/6 407/63/6 408/64/6
usemtl Element
f 409/1/1 410/51/1 412/4/1
f 410/51/1 411/52/1 412/4/1
f 413/52/2 414/4/2 416/51/2
f 414/4/2 415/1/2 416/51/2
f 417/100/3 418/103/3 420/94/3
f 418/103/3 419/104/3 420/94/3
f 421/101/4 422/96/4 424/102/4
f 422/96/4 423/93/4 424/102/4
f 425/61/5 426/62/5 428/64/5
f 426/62/5 427/63/5 428/64/5
f 429/61/6 430/62/6 432/64/6
f 430/62/6 431/63/6 432/64/6
usemtl Element
f 433/91/1 434/65/1 436/92/1
f 434/65/1 435/66/1 436/92/1
f 437/66/2 438/92/2 440/65/2
f 438/92/2 439/91/2 440/65/2
f 441/105/3 442/106/3 444/108/3
f 442/106/3 443/107/3 444/108/3
f 445/105/4 446/106/4 448/108/4
f 446/106/4 447/107/4 448/108/4
f 449/109/5 450/110/5 452/112/5
f 450/110/5 451/111/5 452/112/5
f 453/109/6 454/110/6 456/112/6
f 454/110/6 455/111/6 456/112/6
usemtl Element
f 457/79/1 458/41/1 460/80/1
f 458/41/1 459/42/1 460/80/1
f 461/42/2 462/80/2 464/41/2
f 462/80/2 463/79/2 464/41/2
f 465/93/3 466/113/3 468/115/3
f 466/113/3 467/114/3 468/115/3
f 469/116/4 470/94/4 472/118/4
f 470/94/4 471/117/4 472/118/4
f 473/64/5 474/63/5 476/120/5
f 474/63/5 475/119/5 476/120/5
f 477/64/6 478/63/6 480/120/6
f 478/63/6 479/119/6 480/120/6
usemtl Element
f 481/51/1 482/89/1 484/52/1
f 482/89/1 483/90/1 484/52/1
f 485/90/2 486/52/2 488/89/2
f 486/52/2 487/51/2 488/89/2
f 489/116/3 490/94/3 492/118/3
f 490/94/3 491/117/3 492/118/3
f 493/93/4 494/113/4 496/115/4
f 494/113/4 495/114/4 496/115/4
f 497/64/5 498/63/5 500/120/5
f 498/63/5 499/119/5 500/120/5
f 501/64/6 502/63/6 504/120/6
f 502/63/6 503/119/6 504/120/6
usemtl Element
f 505/65/1 506/41/1 508/66/1
f 506/41/1 507/42/1 508/66/1
f 509/42/2 510/66/2 512/41/2
f 510/66/2 511/65/2 512/41/2
f 513/115/3 514/121/3 516/123/3
f 514/121/3 515/122/3 516/123/3
f 517/124/4 518/117/4 520/126/4
f 518/117/4 519/125/4 520/126/4
f 521/120/5 522/119/5 524/128/5
f 522/119/5 523/127/5 524/128/5
f 525/120/6 526/119/6 528/128/6
f 526/119/6 527/127/6 528/128/6
usemtl Element
f 529/51/1 530/91/1 532/52/1
f 530/91/1 531/92/1 532/52/1
f 533/92/2 534/52/2 536/91/2
f 534/52/2 535/51/2 536/91/2
f 537/124/3 538/117/3 540/126/3
f 538/117/3 539/125/3 540/126/3
f 541/115/4 542/121/4 544/123/4
f 542/121/4 543/122/4 544/123/4
f 545/120/5 546/119/5 548/128/5
f 546/119/5 547/127/5 548/128/5
f 549/120/6 550/119/6 552/128/6
f 550/119/6 551/127/6 552/128/6
usemtl Element
f 553/54/1 554/65/1 556/55/1
f 554/65/1 555/66/1 556/55/1
f 557/66/2 558/55/2 560/65/2
f 558/55/2 559/54/2 560/65/2
f 561/121/3 562/129/3 564/105/3
f 562/129/3 563/130/3 564/105/3
f 565/131/4 566/124/4 568/132/4
f 566/124/4 567/106/4 568/132/4
f 569/120/5 570/119/5 572/109/5
f 570/119/5 571/110/5 572/109/5
f 573/120/6 574/119/6 576/109/6
f 574/119/6 575/110/6 576/109/6
usemtl Element
f 577/91/1 578/53/1 580/92/1
f 578/53/1 579/56/1 580/92/1
f 581/56/2 582/92/2 584/53/2
f 582/92/2 583/91/2 584/53/2
f 585/131/3 586/124/3 588/132/3
f 586/124/3 587/106/3 588/132/3
f 589/121/4 590/129/4 592/105/4
f 590/129/4 591/130/4 592/105/4
f 593/120/5 594/119/5 596/109/5
f 594/119/5 595/110/5 596/109/5
f 597/120/6 598/119/6 600/109/6
f 598/119/6 599/110/6 600/109/6
usemtl Element
f 601/133/1 602/54/1 604/134/1
f 602/54/1 603/55/1 604/134/1
f 605/55/2 606/134/2 608/54/2
f 606/134/2 607/133/2 608/54/2
f 609/135/3 610/12/3 612/137/3
f 610/12/3 611/136/3 612/137/3
f 613/11/4 614/138/4 616/140/4
f 614/138/4 615/139/4 616/140/4
f 617/12/5 618/11/5 620/136/5
f 618/11/5 619/140/5 620/136/5
f 621/12/6 622/11/6 624/136/6
f 622/11/6 623/140/6 624/136/6
usemtl Element
f 625/53/1 626/141/1 628/56/1
f 626/141/1 627/142/1 628/56/1
f 629/142/2 630/56/2 632/141/2
f 630/56/2 631/53/2 632/141/2
f 633/11/3 634/138/3 636/140/3
f 634/138/3 635/139/3 636/140/3
f 637/135/4 638/12/4 640/137/4
f 638/12/4 639/136/4 640/137/4
f 641/12/5 642/11/5 644/136/5
f 642/11/5 643/140/5 644/136/5
f 645/12/6 646/11/6 648/136/6
f 646/11/6 647/140/6 648/136/6
usemtl Element
f 649/141/1 650/133/1 652/142/1
f 650/133/1 651/134/1 652/142/1
f 653/134/2 654/142/2 656/133/2
f 654/142/2 655/141/2 656/133/2
f 657/12/3 658/11/3 660/38/3
f 658/11/3 659/37/3 660/38/3
f 661/12/4 662/11/4 664/38/4
f 662/11/4 663/37/4 664/38/4
f 665/12/5 666/11/5 668/38/5
f 666/11/5 667/37/5 668/38/5
f 669/12/6 670/11/6 672/38/6
f 670/11/6 671/37/6 672/38/6
